simulation/qsim/ULA.msim.vcd
$comment
	File created using the following command:
		vcd file ULA.msim.vcd -direction
$end
$date
	Wed Jan 03 15:32:07 2018
$end
$version
	ModelSim Version 10.5b
$end
$timescale
	1ps
$end

$scope module ULA_vlg_vec_tst $end
$var reg 5 ! A [0:4] $end
$var reg 5 " B [0:4] $end
$var reg 3 # S [0:2] $end
$var wire 1 $ DISPLAY1 [0] $end
$var wire 1 % DISPLAY1 [1] $end
$var wire 1 & DISPLAY1 [2] $end
$var wire 1 ' DISPLAY1 [3] $end
$var wire 1 ( DISPLAY1 [4] $end
$var wire 1 ) DISPLAY1 [5] $end
$var wire 1 * DISPLAY1 [6] $end
$var wire 1 + DISPLAY2 [0] $end
$var wire 1 , DISPLAY2 [1] $end
$var wire 1 - DISPLAY2 [2] $end
$var wire 1 . DISPLAY2 [3] $end
$var wire 1 / DISPLAY2 [4] $end
$var wire 1 0 DISPLAY2 [5] $end
$var wire 1 1 DISPLAY2 [6] $end
$var wire 1 2 F [0] $end
$var wire 1 3 F [1] $end
$var wire 1 4 F [2] $end
$var wire 1 5 F [3] $end
$var wire 1 6 F [4] $end
$var wire 1 7 Overflow $end
$var wire 1 8 Sinal $end
$var wire 1 9 Status $end

$scope module i1 $end
$var wire 1 : gnd $end
$var wire 1 ; vcc $end
$var wire 1 < unknown $end
$var tri1 1 = devclrn $end
$var tri1 1 > devpor $end
$var tri1 1 ? devoe $end
$var wire 1 @ Overflow~output_o $end
$var wire 1 A Status~output_o $end
$var wire 1 B Sinal~output_o $end
$var wire 1 C DISPLAY1[0]~output_o $end
$var wire 1 D DISPLAY1[1]~output_o $end
$var wire 1 E DISPLAY1[2]~output_o $end
$var wire 1 F DISPLAY1[3]~output_o $end
$var wire 1 G DISPLAY1[4]~output_o $end
$var wire 1 H DISPLAY1[5]~output_o $end
$var wire 1 I DISPLAY1[6]~output_o $end
$var wire 1 J DISPLAY2[0]~output_o $end
$var wire 1 K DISPLAY2[1]~output_o $end
$var wire 1 L DISPLAY2[2]~output_o $end
$var wire 1 M DISPLAY2[3]~output_o $end
$var wire 1 N DISPLAY2[4]~output_o $end
$var wire 1 O DISPLAY2[5]~output_o $end
$var wire 1 P DISPLAY2[6]~output_o $end
$var wire 1 Q F[0]~output_o $end
$var wire 1 R F[1]~output_o $end
$var wire 1 S F[2]~output_o $end
$var wire 1 T F[3]~output_o $end
$var wire 1 U F[4]~output_o $end
$var wire 1 V A[0]~input_o $end
$var wire 1 W S[2]~input_o $end
$var wire 1 X A[4]~input_o $end
$var wire 1 Y A[1]~input_o $end
$var wire 1 Z A[3]~input_o $end
$var wire 1 [ A[2]~input_o $end
$var wire 1 \ inst|inst8|inst3|inst6~0_combout $end
$var wire 1 ] inst|inst10|inst3|inst2|inst2~5_combout $end
$var wire 1 ^ inst|inst10|inst3|inst2|inst2~6_combout $end
$var wire 1 _ S[0]~input_o $end
$var wire 1 ` S[1]~input_o $end
$var wire 1 a B[1]~input_o $end
$var wire 1 b B[2]~input_o $end
$var wire 1 c B[4]~input_o $end
$var wire 1 d B[3]~input_o $end
$var wire 1 e inst|inst1|inst1|inst6~0_combout $end
$var wire 1 f inst|inst1|inst2|inst6~0_combout $end
$var wire 1 g inst|inst1|inst3|inst6~0_combout $end
$var wire 1 h B[0]~input_o $end
$var wire 1 i inst|inst10|inst3|inst2|inst2~2_combout $end
$var wire 1 j inst|inst|inst1|inst6~0_combout $end
$var wire 1 k inst|inst|inst2|inst6~0_combout $end
$var wire 1 l inst|inst|inst3|inst6~0_combout $end
$var wire 1 m inst|inst10|inst3|inst2|inst2~3_combout $end
$var wire 1 n inst|inst10|inst3|inst2|inst2~4_combout $end
$var wire 1 o inst|inst10|inst3|inst2|inst2~7_combout $end
$var wire 1 p inst|inst2|inst1|inst|inst5|inst5~0_combout $end
$var wire 1 q inst|inst10|inst3|inst|inst1~0_combout $end
$var wire 1 r inst|inst10|inst3|inst|inst1~2_combout $end
$var wire 1 s inst|inst10|inst3|inst|inst1~1_combout $end
$var wire 1 t inst|inst10|inst3|inst|inst1~3_combout $end
$var wire 1 u inst|inst10|inst3|inst|inst1~4_combout $end
$var wire 1 v inst|inst10|inst3|inst9|inst2~2_combout $end
$var wire 1 w inst|inst10|inst3|inst9|inst2~3_combout $end
$var wire 1 x inst|inst10|inst3|inst9|inst2~4_combout $end
$var wire 1 y inst|inst10|inst3|inst9|inst2~5_combout $end
$var wire 1 z inst|inst10|inst3|inst9|inst2~6_combout $end
$var wire 1 { inst|inst1|inst4|inst1~combout $end
$var wire 1 | inst|inst|inst4|inst1~combout $end
$var wire 1 } inst|inst10|inst3|inst9|inst2~7_combout $end
$var wire 1 ~ inst|inst10|inst3|inst9|inst2~8_combout $end
$var wire 1 !! inst|inst10|inst3|inst9|inst2~9_combout $end
$var wire 1 "! inst|inst10|inst3|inst3|inst2~2_combout $end
$var wire 1 #! inst|inst10|inst3|inst3|inst2~4_combout $end
$var wire 1 $! inst|inst10|inst3|inst3|inst2~3_combout $end
$var wire 1 %! inst|inst10|inst3|inst8|inst2~1_combout $end
$var wire 1 &! inst|inst10|inst3|inst8|inst2~2_combout $end
$var wire 1 '! inst|inst8|inst3|inst1~combout $end
$var wire 1 (! inst|inst10|inst3|inst6|inst2~0_combout $end
$var wire 1 )! inst|inst10|inst3|inst8|inst2~0_combout $end
$var wire 1 *! inst|inst10|inst3|inst8|inst2~3_combout $end
$var wire 1 +! inst|inst10|inst3|inst6|inst2~3_combout $end
$var wire 1 ,! inst|inst10|inst3|inst6|inst2~4_combout $end
$var wire 1 -! inst|inst10|inst3|inst6|inst2~1_combout $end
$var wire 1 .! inst|inst10|inst3|inst6|inst2~2_combout $end
$var wire 1 /! inst|inst10|inst3|inst7|inst2~3_combout $end
$var wire 1 0! inst|inst10|inst3|inst7|inst2~4_combout $end
$var wire 1 1! inst|inst10|inst3|inst7|inst2~2_combout $end
$var wire 1 2! inst|inst10|inst3|inst7|inst2~5_combout $end
$var wire 1 3! inst1|inst|inst13~0_combout $end
$var wire 1 4! inst1|inst|inst13~1_combout $end
$var wire 1 5! inst1|inst6|inst24~6_combout $end
$var wire 1 6! inst1|inst6|inst24~4_combout $end
$var wire 1 7! inst1|inst6|inst24~5_combout $end
$var wire 1 8! inst1|inst7|inst20~0_combout $end
$var wire 1 9! inst1|inst7|inst20~1_combout $end
$var wire 1 :! inst1|inst8|inst14~0_combout $end
$var wire 1 ;! inst1|inst8|inst14~1_combout $end
$var wire 1 <! inst1|inst9|inst33~3_combout $end
$var wire 1 =! inst1|inst9|inst33~1_combout $end
$var wire 1 >! inst1|inst9|inst33~0_combout $end
$var wire 1 ?! inst1|inst9|inst33~2_combout $end
$var wire 1 @! inst1|inst1|inst6~0_combout $end
$var wire 1 A! inst1|inst9|inst33~4_combout $end
$var wire 1 B! inst1|inst10|inst25~0_combout $end
$var wire 1 C! inst1|inst10|inst25~1_combout $end
$var wire 1 D! inst1|inst14|inst28~1_combout $end
$var wire 1 E! inst1|inst14|inst28~0_combout $end
$var wire 1 F! inst1|inst14|inst28~3_combout $end
$var wire 1 G! inst1|inst14|inst28~2_combout $end
$var wire 1 H! inst1|inst14|inst28~4_combout $end
$var wire 1 I! inst1|inst12|inst24~0_combout $end
$var wire 1 J! inst1|inst12|inst24~1_combout $end
$upscope $end
$upscope $end
$enddefinitions $end
#0
$dumpvars
b10000 !
bx "
b111 #
0*
1)
1(
1'
1&
1%
1$
01
10
1/
1.
1-
1,
1+
06
05
04
03
02
17
08
09
0:
1;
x<
1=
1>
1?
1@
0A
0B
1C
1D
1E
1F
1G
1H
0I
1J
1K
1L
1M
1N
1O
0P
0Q
0R
0S
0T
0U
1V
1W
0X
0Y
0Z
0[
0\
1]
1^
1_
1`
xa
xb
xc
xd
xe
xf
xg
xh
xi
0j
0k
0l
0m
0n
1o
0p
0q
xr
xs
xt
0u
0v
0w
0x
1y
0z
x{
x|
x}
x~
0!!
x"!
0#!
0$!
0%!
x&!
0'!
1(!
0)!
0*!
1+!
x,!
0-!
0.!
0/!
x0!
01!
02!
03!
14!
05!
06!
07!
08!
19!
1:!
1;!
0<!
0=!
0>!
0?!
0@!
0A!
0B!
0C!
0D!
0E!
0F!
0G!
1H!
0I!
0J!
$end
#100000
b10010 !
b11010 !
b1010 !
1Z
1Y
0V
1)!
xp
xj
1\
xx
xl
xy
xw
xq
xk
xz
1*!
1R
x%!
x/!
x+!
1D!
16!
15!
13
1J!
1P
11
#200000
b1011 !
b1001 !
b1 !
b10001 !
1X
0Z
0Y
1V
11!
1'!
0)!
12!
0*!
0R
1S
1F!
0D!
1B!
1>!
1<!
05!
14
03
0F!
1C!
1?!
17!
0H!
0O
0J
0N
1A!
0/
0+
00
1H!
1O
0M
0.
10
#300000
b10101 !
b11101 !
b1101 !
1[
1Y
0V
0'!
1v
1!!
1B
1Q
1D!
0B!
0>!
0:!
07!
12
18
04!
0C
0F
0G
0H
1J
1F!
0C!
0?!
1+
0)
0(
0'
0$
0;!
0L
1N
0A!
1/
0-
0H!
0O
1M
1.
00
#400000
b1100 !
b1110 !
b1010 !
b10 !
0X
1Z
0[
0Y
01!
1'!
1)!
0v
0]
0r
1@!
0^
02!
1*!
0!!
0B
0Q
1R
0S
1A!
0F!
0<!
1:!
15!
0@!
17!
04
13
02
08
1H!
0o
14!
1C
1F
1G
1H
0@
1O
0J
0M
0A!
07!
0.
0+
10
07
1)
1(
1'
1$
1;!
1L
1J
1M
1.
1+
1-
#500000
b110 !
b1110 !
1[
1Y
0'!
1v
1]
xr
1^
1!!
1B
1Q
0D!
1@!
1=!
18!
12
18
1o
09!
0K
1@
17
0,
19!
1K
1,
#600000
b11110 !
b11100 !
b10100 !
0Z
0Y
1V
0)!
1'!
0p
0j
0@!
0*!
0R
1D!
08!
06!
05!
03
04!
0C
0F
0G
0H
0)
0(
0'
0$
09!
0K
0,
#700000
b10101 !
b10001 !
b1 !
b11 !
1X
1Z
0[
0V
11!
xp
xj
1e
1)!
0w
0v
0q
0k
0]
0r
xw
xq
xk
1@!
0x
0l
0^
12!
1*!
0!!
0B
0Q
1R
1S
xx
xl
1I!
1F!
1>!
0=!
1<!
0:!
13!
15!
0@!
14
13
02
08
0o
19!
14!
0J!
0P
1C
1F
1G
1H
1K
0@
07
1,
1)
1(
1'
1$
01
1J!
0H!
0;!
04!
0C
0F
0G
0H
0L
0O
1P
11
00
0-
0)
0(
0'
0$
